^C:\USERS\TWOONEOW\SOURCE\REPOS\DZ16\X64\DEBUG\DZ16.OBJ
C:\USERS\TWOONEOW\SOURCE\REPOS\DZ16\X64\DEBUG\DZ16.EXE
C:\USERS\TWOONEOW\SOURCE\REPOS\DZ16\X64\DEBUG\DZ16.ILK
C:\USERS\TWOONEOW\SOURCE\REPOS\DZ16\X64\DEBUG\DZ16.PDB
